Egovernment 2003-2022
…
ePart_REG_TES <- ePart_REG_TES %>% mutate(Year=as.integer(Year))

ePart_REG_TES 

## # A tibble: 55 × 6
##    Region Crecimiento maxScore Oportunidad  Year EPART
##    <chr>        <dbl>    <dbl>       <dbl> <int> <dbl>
##  1 Europe       0.384        1       0.337  2003 0.279
##  2 Europe       0.384        1       0.337  2004 0.286
##  3 Europe       0.384        1       0.337  2005 0.287
##  4 Europe       0.384        1       0.337  2008 0.279
##  5 Europe       0.384        1       0.337  2010 0.324
##  6 Europe       0.384        1       0.337  2012 0.348
##  7 Europe       0.384        1       0.337  2014 0.545
##  8 Europe       0.384        1       0.337  2016 0.698
##  9 Europe       0.384        1       0.337  2018 0.810
## 10 Europe       0.384        1       0.337  2020 0.784
## # … with 45 more rows
…
